{
  "project_info": {
    "project_number": "487099392979",
    "firebase_url": "https://classifier-app-bd1b2.firebaseio.com",
    "project_id": "classifier-app-bd1b2",
    "storage_bucket": "classifier-app-bd1b2.appspot.com"
  },
  "client": [
    {
      "client_info": {
        "mobilesdk_app_id": "1:487099392979:android:942318268b2316f6840526",
        "android_client_info": {
          "package_name": "com.example.classifier"
        }
      },
      "oauth_client": [
        {
          "client_id": "487099392979-v27aa80medfgionqhe8tah8pim7or78c.apps.googleusercontent.com",
          "client_type": 3
        }
      ],
      "api_key": [
        {
          "current_key": "AIzaSyDZLKZkEyIdNI-esaIIOi_8F6jxHGaTMpI"
        }
      ],
      "services": {
        "appinvite_service": {
          "other_platform_oauth_client": [
            {
              "client_id": "487099392979-v27aa80medfgionqhe8tah8pim7or78c.apps.googleusercontent.com",
              "client_type": 3
            }
          ]
        }
      }
    }
  ],
  "configuration_version": "1"
}